…
## Countries

Below are the most and least represented countries in this dataset.

.maxrows 25

SELECT   COUNT(\*),
         "Country or Region"
FROM     READ\_PARQUET('icmm.parquet')
GROUP BY 2
ORDER BY 1 DESC;

┌──────────────┬─────────────────────┐
│ count\_star() │  Country or Region  │
│    int64     │       varchar       │
├──────────────┼─────────────────────┤
│         1839 │ China               │
│         1627 │ United States       │
│          588 │ Australia           │
│          473 │ Indonesia           │
│          424 │ India               │
│          328 │ Russia              │
│          272 │ South Africa        │
│          252 │ Brazil              │
│          206 │ Peru                │
│          197 │ Canada              │
│          146 │ Bolivia             │
│          144 │ Chile               │
│          136 │ Mexico              │
│            · │  ·                  │
│            · │  ·                  │
│            · │  ·                  │
│            2 │ Fiji                │
│            1 │ Rwanda              │
│            1 │ Trinidad and Tobago │
│            1 │ Gabon               │
│            1 │ Bangladesh          │
│            1 │ Bahrain             │
│            1 │ Nepal               │
│            1 │ Luxembourg          │
│            1 │ Taiwan              │
│            1 │ Niger               │
│            1 │ Qatar               │
│            1 │ Greenland           │
├──────────────┴─────────────────────┤
│ 129 rows (25 shown)      2 columns │
└────────────────────────────────────┘
…
